{
   "type":"FeatureCollection",
   "crs":{
      "type":"name",
      "properties":{
         "name":"urn:ogc:def:crs:OGC:1.3:CRS84"
      }
   },
   "features":[
      {
         "type":"Feature",
         "properties":{
            "Name":"Santa Rosa",
            "Concessão":"STE",
            "Tensão":"230 KV",
            "icon":null
         },
         "geometry":{
            "type":"Point",
            "coordinates":[
               -54.4801558,
               -27.8706817
            ]
         }
      },
      {
         "type":"Feature",
         "properties":{
            "Name":"Santo Ângelo",
            "Concessão":"STE",
            "Tensão":"230 KV",
            "icon":null
         },
         "geometry":{
            "type":"Point",
            "coordinates":[
               -54.2673083,
               -28.3006117
            ]
         }
      },
      {
         "type":"Feature",
         "properties":{
            "Name":"Maçambara",
            "Concessão":"STE",
            "Tensão":"230 KV",
            "icon":null
         },
         "geometry":{
            "type":"Point",
            "coordinates":[
               -55.8913207,
               -29.0365092
            ]
         }
      },
      {
         "type":"Feature",
         "properties":{
            "Name":"Uruguaiana",
            "Concessão":"STE",
            "Tensão":"230 KV",
            "icon":null
         },
         "geometry":{
            "type":"Point",
            "coordinates":[
               -57.0858428,
               -29.7619121
            ]
         }
      },
      {
         "type":"Feature",
         "properties":{
            "Name":"Santa Marta",
            "Concessão":"ETAU",
            "Tensão":"230KV",
            "icon":null
         },
         "geometry":{
            "type":"Point",
            "coordinates":[
               -52.4342235,
               -28.2889827
            ]
         }
      },
      {
         "type":"Feature",
         "properties":{
            "Name":"Lagoa Vermelha",
            "Concessão":"ETAU",
            "Tensão":"230KV",
            "icon":null
         },
         "geometry":{
            "type":"Point",
            "coordinates":[
               -51.5256087,
               -28.2092212
            ]
         }
      },
      {
         "type":"Feature",
         "properties":{
            "Name":"Barra Grande",
            "Concessão":"ETAU,ECTE,LUMITRANS",
            "icon":null
         },
         "geometry":{
            "type":"Point",
            "coordinates":[
               -52.1896113,
               -26.7822518
            ]
         }
      },
      {
         "type":"Feature",
         "properties":{
            "Name":"Campos Novos",
            "Concessão":"ETAU,STC",
            "Tensão":"230KV",
            "icon":null
         },
         "geometry":{
            "type":"Point",
            "coordinates":[
               -51.2258597,
               -27.4009891
            ]
         }
      },
      {
         "type":"Feature",
         "properties":{
            "Name":"Lages",
            "Concessão":"STC",
            "Tensão":"230KV",
            "icon":null
         },
         "geometry":{
            "type":"Point",
            "coordinates":[
               -50.326356,
               -27.8154629
            ]
         }
      },
      {
         "type":"Feature",
         "properties":{
            "Name":"Rio do Sul",
            "Concessão":"STC",
            "Tensão":"230KV",
            "icon":null
         },
         "geometry":{
            "type":"Point",
            "coordinates":[
               -49.6435018,
               -27.2160932
            ]
         }
      },
      {
         "type":"Feature",
         "properties":{
            "Name":"Abdon Batista",
            "Concessão":"ETSE",
            "Tensão":"525KV",
            "icon":null
         },
         "geometry":{
            "type":"Point",
            "coordinates":[
               -51.0237737,
               -27.6131217
            ]
         }
      },
      {
         "type":"Feature",
         "properties":{
            "Name":"Gaspar II",
            "Concessão":"ETSE",
            "Tensão":"525KV",
            "icon":null
         },
         "geometry":{
            "type":"Point",
            "coordinates":[
               -48.9539069,
               -26.9340955
            ]
         }
      },
      {
         "type":"Feature",
         "properties":{
            "Name":"Blumenau",
            "Concessão":"ECTE",
            "Tensão":"525KV",
            "icon":null
         },
         "geometry":{
            "type":"Point",
            "coordinates":[
               -49.0717331,
               -26.9165792
            ]
         }
      },
      {
         "type":"Feature",
         "properties":{
            "Name":"Machadinho",
            "Concessão":"LUMITRANS",
            "Tensão":"525KV",
            "icon":null
         },
         "geometry":{
            "type":"Point",
            "coordinates":[
               -51.6623517,
               -27.6008599
            ]
         }
      },
      {
         "type":"Feature",
         "properties":{
            "Name":"Foz do Iguaçu",
            "Concessão":"ERB1",
            "Tensão":"525KV",
            "icon":null
         },
         "geometry":{
            "type":"Point",
            "coordinates":[
               -54.5853764,
               -25.5163356
            ]
         }
      },
      {
         "type":"Feature",
         "properties":{
            "Name":"Guaíra",
            "Concessão":"ERB1",
            "Tensão":"525KV",
            "icon":null
         },
         "geometry":{
            "type":"Point",
            "coordinates":[
               -54.256534,
               -24.0840184
            ]
         }
      },
      {
         "type":"Feature",
         "properties":{
            "Name":"Sarandi",
            "Concessão":"ERB1",
            "Tensão":"525/230KV",
            "icon":null
         },
         "geometry":{
            "type":"Point",
            "coordinates":[
               -51.8765044,
               -23.4445928
            ]
         }
      },
      {
         "type":"Feature",
         "properties":{
            "Name":"Paranavaí",
            "Concessão":"ERB1",
            "Tensão":"230KV",
            "icon":null
         },
         "geometry":{
            "type":"Point",
            "coordinates":[
               -52.4622155,
               -23.0821226
            ]
         }
      },
      {
         "type":"Feature",
         "properties":{
            "Name":"Londrina",
            "Concessão":"ATE,ERB1",
            "Tensão":"525KV",
            "icon":null
         },
         "geometry":{
            "type":"Point",
            "coordinates":[
               -51.1695824,
               -23.3044524
            ]
         }
      },
      {
         "type":"Feature",
         "properties":{
            "Name":"Assis",
            "Concessão":"ETEO,ATE",
            "Tensão":"525/440KV",
            "icon":null
         },
         "geometry":{
            "type":"Point",
            "coordinates":[
               -50.4187813,
               -22.6604341
            ]
         }
      },
      {
         "type":"Feature",
         "properties":{
            "Name":"Araraquara",
            "Concessão":"ATE",
            "Tensão":"525KV",
            "icon":null
         },
         "geometry":{
            "type":"Point",
            "coordinates":[
               -48.1786486,
               -21.7848272
            ]
         }
      },
      {
         "type":"Feature",
         "properties":{
            "Name":"Sumaré",
            "Concessão":"ETEO",
            "Tensão":"440KV",
            "icon":null
         },
         "geometry":{
            "type":"Point",
            "coordinates":[
               -47.2732726,
               -22.8209029
            ]
         }
      },
      {
         "type":"Feature",
         "properties":{
            "Name":"Itutinga",
            "Concessão":"TRANSUDESTE",
            "Tensão":"345KV",
            "icon":null
         },
         "geometry":{
            "type":"Point",
            "coordinates":[
               -44.7193823,
               -21.3665378
            ]
         }
      },
      {
         "type":"Feature",
         "properties":{
            "Name":"Juiz de Fora",
            "Concessão":"TRANSUDESTE",
            "Tensão":"345KV",
            "icon":null
         },
         "geometry":{
            "type":"Point",
            "coordinates":[
               -43.3433999,
               -21.7624237
            ]
         }
      },
      {
         "type":"Feature",
         "properties":{
            "Name":"Santos Dumont 2",
            "Concessão":"ESDE",
            "Tensão":"345KV",
            "icon":null
         },
         "geometry":{
            "type":"Point",
            "coordinates":[
               -43.5500883,
               -21.4662142
            ]
         }
      },
      {
         "type":"Feature",
         "properties":{
            "Name":"Mesquita",
            "Concessão":"ESTE",
            "Tensão":"500KV",
            "icon":null
         },
         "geometry":{
            "type":"Point",
            "coordinates":[
               -42.6081935,
               -19.2242621
            ]
         }
      },
      {
         "type":"Feature",
         "properties":{
            "Name":"João Neiva 2",
            "Concessão":"ESTE",
            "Tensão":"500KV",
            "icon":null
         },
         "geometry":{
            "type":"Point",
            "coordinates":[
               -40.4516329,
               -19.7117202
            ]
         }
      },
      {
         "type":"Feature",
         "properties":{
            "Name":"São Gotardo 2",
            "Concessão":"SÃO GOTARDO",
            "Tensão":"345/138KV",
            "icon":null
         },
         "geometry":{
            "type":"Point",
            "coordinates":[
               -46.0489795,
               -19.3107686
            ]
         }
      },
      {
         "type":"Feature",
         "properties":{
            "Name":"Governador Valadares",
            "Concessão":"IEA",
            "Tensão":"500KV",
            "detail":"EM CONSTRUÇÃO",
            "icon":null
         },
         "geometry":{
            "type":"Point",
            "coordinates":[
               -41.9559233,
               -18.8549317
            ]
         }
      },
      {
         "type":"Feature",
         "properties":{
            "Name":"Padre Paraíso 2",
            "Concessão":"IEP,IEA",
            "Tensão":"500KV",
            "detail":"EM CONSTRUÇÃO",
            "icon":null
         },
         "geometry":{
            "type":"Point",
            "coordinates":[
               -41.5612423,
               -17.0490108
            ]
         }
      },
      {
         "type":"Feature",
         "properties":{
            "Name":"Vespasiano 2",
            "Concessão":"MARIANA",
            "detail":"EM CONSTRUÇÃO,SUBESTAÇÃO EXISTENTE",
            "icon":null
         },
         "geometry":{
            "type":"Point",
            "coordinates":[
               -43.9243123,
               -19.688806
            ]
         }
      },
      {
         "type":"Feature",
         "properties":{
            "Name":"Itabirito 2",
            "Concessão":"MARIANA",
            "detail":"EM CONSTRUÇÃO,SUBESTAÇÃO EXISTENTE",
            "icon":null
         },
         "geometry":{
            "type":"Point",
            "coordinates":[
               -43.8030567,
               -20.2530617
            ]
         }
      },
      {
         "type":"Feature",
         "properties":{
            "Name":"Montes Claros",
            "Concessão":"TRANSLESTE",
            "Tensão":"345KV",
            "icon":null
         },
         "geometry":{
            "type":"Point",
            "coordinates":[
               -43.8582139,
               -16.7286406
            ]
         }
      },
      {
         "type":"Feature",
         "properties":{
            "Name":"Irapé",
            "Concessão":"TRANSLESTE,TRANSIRAPE",
            "Tensão":"345/230KV",
            "icon":null
         },
         "geometry":{
            "type":"Point",
            "coordinates":[
               -42.575,
               -16.7375
            ]
         }
      },
      {
         "type":"Feature",
         "properties":{
            "Name":"Araçuaí",
            "Concessão":"TRANSIRAPE",
            "Tensão":"230KV",
            "icon":null
         },
         "geometry":{
            "type":"Point",
            "coordinates":[
               -42.0633003,
               -16.8488172
            ]
         }
      },
      {
         "type":"Feature",
         "properties":{
            "Name":"Poções 3",
            "Concessão":"IEP",
            "Tensão":"500KV",
            "detail":"EM CONSTRUÇÃO",
            "icon":null
         },
         "geometry":{
            "type":"Point",
            "coordinates":[
               -40.3637247,
               -14.5238457
            ]
         }
      },
      {
         "type":"Feature",
         "properties":{
            "Name":"Pirapora 2",
            "Concessão":"JTE",
            "Tensão":"500KV",
            "detail":"EM CONSTRUÇÃO",
            "icon":null
         },
         "geometry":{
            "type":"Point",
            "coordinates":[
               -44.9230576,
               -17.3435064
            ]
         }
      },
      {
         "type":"Feature",
         "properties":{
            "Name":"Janaúba 3",
            "Concessão":"JTE",
            "Tensão":"500KV",
            "detail":"EM CONSTRUÇÃO",
            "icon":null
         },
         "geometry":{
            "type":"Point",
            "coordinates":[
               -43.3146976,
               -15.8052004
            ]
         }
      },
      {
         "type":"Feature",
         "properties":{
            "Name":"Bom Jesus da Lapa II",
            "Concessão":"TSN,JTE",
            "Tensão":"500/230KV",
            "detail":"EM CONSTRUÇÃO",
            "icon":null
         },
         "geometry":{
            "type":"Point",
            "coordinates":[
               -43.4112394,
               -13.2513786
            ]
         }
      },
      {
         "type":"Feature",
         "properties":{
            "Name":"Bom Jesus da Lapa",
            "Concessão":"TSN",
            "Tensão":"230KV",
            "icon":null
         },
         "geometry":{
            "type":"Point",
            "coordinates":[
               -43.3892526,
               -13.0587823
            ]
         }
      },
      {
         "type":"Feature",
         "properties":{
            "Name":"Camaçari II",
            "Concessão":"MUNIRAH",
            "Tensão":"500KV",
            "icon":null
         },
         "geometry":{
            "type":"Point",
            "coordinates":[
               -38.3331983,
               -12.6971776
            ]
         }
      },
      {
         "type":"Feature",
         "properties":{
            "Name":"Sapeaçu",
            "Concessão":"TSN,MUNIRAH",
            "Tensão":"500KV",
            "icon":null
         },
         "geometry":{
            "type":"Point",
            "coordinates":[
               -39.2167652,
               -12.7081418
            ]
         }
      },
      {
         "type":"Feature",
         "properties":{
            "Name":"Ibicoara",
            "Concessão":"TSN",
            "Tensão":"500KV",
            "icon":null
         },
         "geometry":{
            "type":"Point",
            "coordinates":[
               -41.2844361,
               -13.4136594
            ]
         }
      },
      {
         "type":"Feature",
         "properties":{
            "Name":"Igaporã III",
            "Concessão":"TSN",
            "Tensão":"500KV",
            "icon":null
         },
         "geometry":{
            "type":"Point",
            "coordinates":[
               -42.7158977,
               -13.7744727
            ]
         }
      },
      {
         "type":"Feature",
         "properties":{
            "Name":"Rio das Éguas",
            "Concessão":"TSN",
            "Tensão":"500KV",
            "icon":null
         },
         "geometry":{
            "type":"Point",
            "coordinates":[
               -45.3247252,
               -13.5098706
            ]
         }
      },
      {
         "type":"Feature",
         "properties":{
            "Name":"Serra da Mesa",
            "Concessão":"TSN,NVT",
            "Tensão":"500KV",
            "icon":null
         },
         "geometry":{
            "type":"Point",
            "coordinates":[
               -48.6342031,
               -14.2225573
            ]
         }
      },
      {
         "type":"Feature",
         "properties":{
            "Name":"Serra da Mesa II",
            "Concessão":"TSN",
            "Tensão":"500KV",
            "icon":null
         },
         "geometry":{
            "type":"Point",
            "coordinates":[
               -48.304444,
               -13.834167
            ]
         }
      },
      {
         "type":"Feature",
         "properties":{
            "Name":"Samambaia",
            "Concessão":"NVT",
            "Tensão":"500KV",
            "icon":null
         },
         "geometry":{
            "type":"Point",
            "coordinates":[
               -48.0854786,
               -15.8734605
            ]
         }
      },
      {
         "type":"Feature",
         "properties":{
            "Name":"Gurupi",
            "Concessão":"NVT",
            "Tensão":"500KV",
            "icon":null
         },
         "geometry":{
            "type":"Point",
            "coordinates":[
               -49.0686083,
               -11.7283752
            ]
         }
      },
      {
         "type":"Feature",
         "properties":{
            "Name":"Miracema",
            "Concessão":"NVT,MIR",
            "Tensão":"500KV",
            "detail":"EM CONSTRUÇÃO",
            "icon":null
         },
         "geometry":{
            "type":"Point",
            "coordinates":[
               -48.393409,
               -9.5659692
            ]
         }
      },
      {
         "type":"Feature",
         "properties":{
            "Name":"Colinas",
            "Concessão":"NVT,ATE II,ATE III",
            "Tensão":"500KV",
            "icon":null
         },
         "geometry":{
            "type":"Point",
            "coordinates":[
               -48.5187229,
               -8.0988707
            ]
         }
      },
      {
         "type":"Feature",
         "properties":{
            "Name":"Imperatriz",
            "Concessão":"NVT,EATE",
            "Tensão":"500KV",
            "icon":null
         },
         "geometry":{
            "type":"Point",
            "coordinates":[
               -47.4718408,
               -5.5205508
            ]
         }
      },
      {
         "type":"Feature",
         "properties":{
            "Name":"Palmas",
            "Concessão":"MIR",
            "Tensão":"500KV",
            "detail":"EM CONSTRUÇÃO",
            "icon":null
         },
         "geometry":{
            "type":"Point",
            "coordinates":[
               -48.3242858,
               -10.249091
            ]
         }
      },
      {
         "type":"Feature",
         "properties":{
            "Name":"Lajeado",
            "Concessão":"MIR",
            "Tensão":"500KV",
            "detail":"EM CONSTRUÇÃO",
            "icon":null
         },
         "geometry":{
            "type":"Point",
            "coordinates":[
               -48.299098,
               -9.8602022
            ]
         }
      },
      {
         "type":"Feature",
         "properties":{
            "Name":"Jauru",
            "Concessão":"BRASNORTE",
            "Tensão":"230KV",
            "icon":null
         },
         "geometry":{
            "type":"Point",
            "coordinates":[
               -58.8747865,
               -15.3776137
            ]
         }
      },
      {
         "type":"Feature",
         "properties":{
            "Name":"Juba",
            "Concessão":"BRASNORTE,EBTE",
            "Tensão":"230KV",
            "icon":null
         },
         "geometry":{
            "type":"Point",
            "coordinates":[
               -58.5049438,
               -15.1437181
            ]
         }
      },
      {
         "type":"Feature",
         "properties":{
            "Name":"Brasnorte",
            "Concessão":"BRASNORTE,EBTE",
            "Tensão":"230KV",
            "icon":null
         },
         "geometry":{
            "type":"Point",
            "coordinates":[
               -58.1892921,
               -12.3710126
            ]
         }
      },
      {
         "type":"Feature",
         "properties":{
            "Name":"Juína",
            "Concessão":"BTE",
            "Tensão":"230KV",
            "icon":null
         },
         "geometry":{
            "type":"Point",
            "coordinates":[
               -58.7571929,
               -11.4228495
            ]
         }
      },
      {
         "type":"Feature",
         "properties":{
            "Name":"Parecis",
            "Concessão":"EBTE",
            "Tensão":"230KV",
            "icon":null
         },
         "geometry":{
            "type":"Point",
            "coordinates":[
               -56.935522,
               -14.1565777
            ]
         }
      },
      {
         "type":"Feature",
         "properties":{
            "Name":"Nova Mutum",
            "Concessão":"EBTE,BRASNORTE",
            "Tensão":"230KV",
            "icon":null
         },
         "geometry":{
            "type":"Point",
            "coordinates":[
               -56.0835437,
               -13.8223587
            ]
         }
      },
      {
         "type":"Feature",
         "properties":{
            "Name":"Sorriso",
            "Concessão":"EBTE",
            "Tensão":"230KV",
            "icon":null
         },
         "geometry":{
            "type":"Point",
            "coordinates":[
               -55.7215367,
               -12.5429456
            ]
         }
      },
      {
         "type":"Feature",
         "properties":{
            "Name":"Sinop",
            "Concessão":"EBTE",
            "Tensão":"230KV",
            "icon":null
         },
         "geometry":{
            "type":"Point",
            "coordinates":[
               -55.5095451,
               -11.8608456
            ]
         }
      },
      {
         "type":"Feature",
         "properties":{
            "Name":"Sobradinho",
            "Concessão":"ATE II",
            "Tensão":"500KV",
            "icon":null
         },
         "geometry":{
            "type":"Point",
            "coordinates":[
               -40.7957533,
               -9.4697374
            ]
         }
      },
      {
         "type":"Feature",
         "properties":{
            "Name":"São João do Piauí",
            "Concessão":"ATE II",
            "Tensão":"500KV",
            "icon":null
         },
         "geometry":{
            "type":"Point",
            "coordinates":[
               -42.2756861,
               -8.3402651
            ]
         }
      },
      {
         "type":"Feature",
         "properties":{
            "Name":"Ribeiro Gonçalves",
            "Concessão":"ATE II",
            "Tensão":"500KV",
            "icon":null
         },
         "geometry":{
            "type":"Point",
            "coordinates":[
               -45.242952,
               -7.5608709
            ]
         }
      },
      {
         "type":"Feature",
         "properties":{
            "Name":"Itacaiúnas",
            "Concessão":"ATE III",
            "Tensão":"500/230KV",
            "icon":null
         },
         "geometry":{
            "type":"Point",
            "coordinates":[
               -49.9943667,
               -5.6136767
            ]
         }
      },
      {
         "type":"Feature",
         "properties":{
            "Name":"Carajás",
            "Concessão":"ATE III",
            "Tensão":"230KV",
            "icon":null
         },
         "geometry":{
            "type":"Point",
            "coordinates":[
               -50.0666951,
               -6.0703064
            ]
         }
      },
      {
         "type":"Feature",
         "properties":{
            "Name":"Marabá",
            "Concessão":"ATE III,ENTE,EATE",
            "Tensão":"500KV",
            "icon":null
         },
         "geometry":{
            "type":"Point",
            "coordinates":[
               -49.1331046,
               -5.3811326
            ]
         }
      },
      {
         "type":"Feature",
         "properties":{
            "Name":"Açailândia",
            "Concessão":"ENTE,EATE",
            "Tensão":"500KV",
            "icon":null
         },
         "geometry":{
            "type":"Point",
            "coordinates":[
               -47.5030772,
               -4.9539357
            ]
         }
      },
      {
         "type":"Feature",
         "properties":{
            "Name":"Presidente Dutra",
            "Concessão":"EATE",
            "Tensão":"500KV",
            "icon":null
         },
         "geometry":{
            "type":"Point",
            "coordinates":[
               -44.4953762,
               -5.2901917
            ]
         }
      },
      {
         "type":"Feature",
         "properties":{
            "Name":"Tucuruí",
            "Concessão":"ENTE,EATE,ETEP",
            "Tensão":"500KV",
            "icon":null
         },
         "geometry":{
            "type":"Point",
            "coordinates":[
               -49.7728757,
               -3.8036143
            ]
         }
      },
      {
         "type":"Feature",
         "properties":{
            "Name":"Vila Do Conde",
            "Concessão":"ETEP,ERTE",
            "Tensão":"500/230KV",
            "icon":null
         },
         "geometry":{
            "type":"Point",
            "coordinates":[
               -48.7356295,
               -1.5732287
            ]
         }
      },
      {
         "type":"Feature",
         "properties":{
            "Name":"Castanhal",
            "Concessão":"ERTE",
            "Tensão":"230KV",
            "icon":null
         },
         "geometry":{
            "type":"Point",
            "coordinates":[
               -47.9171616,
               -1.2983288
            ]
         }
      },
      {
         "type":"Feature",
         "properties":{
            "Name":"Santa Maria",
            "Concessão":"ERTE",
            "Tensão":"230KV",
            "icon":null
         },
         "geometry":{
            "type":"Point",
            "coordinates":[
               -47.576501,
               -1.3504584
            ]
         }
      }
   ]
}