{
    "type": "FeatureCollection",
    "features": [
        {
            "type": "Feature",
            "properties": {
                "Name": "ATE II",
                "Tensão": " 500kV",
                "equipmentType": "ACLineSegment",
                "priority": 0.6837306145231179
            },
            "geometry": {
                "type": "LineString",
                "coordinates": [
                    [
                        -40.7957533,
                        -9.4697374
                    ],
                    [
                        -42.2756861,
                        -8.3402651
                    ],
                    [
                        -45.242952,
                        -7.5608709
                    ],
                    [
                        -48.5187229,
                        -8.0988707
                    ]
                ]
            }
        }
    ]
}