[
    {
        "mRID": "1",
        "Latitude": -10.21222810,
        "Longitude": -36.83718520000002,
        "Address": "Rua A, 100 - Belo Horizonte",
        "Name": "Base A",
        "Teams": [
            "Manutenção de linha",
            "Brigada de incêndio",
            "Manutenção de Torres"
        ]
    },
    {
        "mRID": "2",
        "Latitude": -10.21565540,
        "Longitude": -37.42128070000001,
        "Address": "Rua B, 200 - Belo Horizonte",
        "Name": "Base B",
        "Teams": [
            "Manutenção de linha",            
            "Manutenção de Torres"
        ]
    },
    {
        "mRID": "3",
        "Latitude": -10.91406310,
        "Longitude": -37.66929010000001,
        "Address": "Rua C, 300 - Belo Horizonte",
        "Name": "Base C",
        "Teams": [            
            "Brigada de incêndio"            
        ]
    },
    {
        "mRID": "4",
        "Latitude": -10.94724680,
        "Longitude": -37.07308230000001,
        "Address": "Rua D, 400 - Belo Horizonte",
        "Name": "Base D",
        "Teams": [
            "Manutenção de linha",
            "Brigada de incêndio",
            "Manutenção de Torres"
        ]
    }
]